{
  "extends": ["tslint:latest", "tslint-config-prettier"],
  "rules": {
    "object-literal-sort-keys": false,
    "no-object-literal-type-assertion": false,
    "variable-name": [
      true,
      "allow-leading-underscore"
    ]
  }
}
